module gitlab.com/CarbonCollins/nomad-usb-device-plugin

go 1.19

require (
	github.com/google/gousb v1.1.2
	github.com/hashicorp/go-hclog v1.3.1
	github.com/hashicorp/nomad v1.4.2
	google.golang.org/grpc v1.50.1
)

require (
	github.com/LK4D4/joincontext v0.0.0-20171026170139-1724345da6d5 // indirect
	github.com/Masterminds/goutils v1.1.1 // indirect
	github.com/Masterminds/semver/v3 v3.1.1 // indirect
	github.com/Masterminds/sprig/v3 v3.2.2 // indirect
	github.com/agext/levenshtein v1.2.3 // indirect
	github.com/apparentlymart/go-textseg/v13 v13.0.0 // indirect
	github.com/armon/go-metrics v0.4.1 // indirect
	github.com/armon/go-radix v1.0.0 // indirect
	github.com/bgentry/speakeasy v0.1.0 // indirect
	github.com/cenkalti/backoff/v3 v3.2.2 // indirect
	github.com/container-storage-interface/spec v1.6.0 // indirect
	github.com/davecgh/go-spew v1.1.1 // indirect
	github.com/dustin/go-humanize v1.0.0 // indirect
	github.com/fatih/color v1.13.0 // indirect
	github.com/fsnotify/fsnotify v1.6.0 // indirect
	github.com/go-ole/go-ole v1.2.6 // indirect
	github.com/golang-jwt/jwt/v4 v4.4.2 // indirect
	github.com/golang/protobuf v1.5.2 // indirect
	github.com/golang/snappy v0.0.4 // indirect
	github.com/google/btree v1.0.0 // indirect
	github.com/google/uuid v1.3.0 // indirect
	github.com/grpc-ecosystem/go-grpc-middleware v1.3.0 // indirect
	github.com/hashicorp/consul/api v1.15.3 // indirect
	github.com/hashicorp/cronexpr v1.1.1 // indirect
	github.com/hashicorp/errwrap v1.1.0 // indirect
	github.com/hashicorp/go-cleanhttp v0.5.2 // indirect
	github.com/hashicorp/go-immutable-radix v1.3.1 // indirect
	github.com/hashicorp/go-msgpack v1.1.5 // indirect
	github.com/hashicorp/go-multierror v1.1.1 // indirect
	github.com/hashicorp/go-plugin v1.4.5 // indirect
	github.com/hashicorp/go-retryablehttp v0.7.1 // indirect
	github.com/hashicorp/go-rootcerts v1.0.2 // indirect
	github.com/hashicorp/go-secure-stdlib/listenerutil v0.1.4 // indirect
	github.com/hashicorp/go-secure-stdlib/mlock v0.1.2 // indirect
	github.com/hashicorp/go-secure-stdlib/parseutil v0.1.7 // indirect
	github.com/hashicorp/go-secure-stdlib/reloadutil v0.1.1 // indirect
	github.com/hashicorp/go-secure-stdlib/strutil v0.1.2 // indirect
	github.com/hashicorp/go-secure-stdlib/tlsutil v0.1.2 // indirect
	github.com/hashicorp/go-set v0.1.6 // indirect
	github.com/hashicorp/go-sockaddr v1.0.2 // indirect
	github.com/hashicorp/go-uuid v1.0.3 // indirect
	github.com/hashicorp/go-version v1.6.0 // indirect
	github.com/hashicorp/golang-lru v0.5.4 // indirect
	github.com/hashicorp/hcl v1.0.1-vault-5 // indirect
	github.com/hashicorp/hcl/v2 v2.14.1 // indirect
	github.com/hashicorp/memberlist v0.5.0 // indirect
	github.com/hashicorp/raft v1.3.11 // indirect
	github.com/hashicorp/raft-autopilot v0.1.6 // indirect
	github.com/hashicorp/serf v0.10.1 // indirect
	github.com/hashicorp/vault/api v1.8.1 // indirect
	github.com/hashicorp/vault/sdk v0.6.0 // indirect
	github.com/hashicorp/yamux v0.1.1 // indirect
	github.com/hpcloud/tail v1.0.1-0.20170814160653-37f427138745 // indirect
	github.com/huandu/xstrings v1.3.2 // indirect
	github.com/imdario/mergo v0.3.13 // indirect
	github.com/jefferai/isbadcipher v0.0.0-20190226160619-51d2077c035f // indirect
	github.com/lufia/plan9stats v0.0.0-20220913051719-115f729f3c8c // indirect
	github.com/mattn/go-colorable v0.1.13 // indirect
	github.com/mattn/go-isatty v0.0.16 // indirect
	github.com/miekg/dns v1.1.50 // indirect
	github.com/mitchellh/cli v1.1.4 // indirect
	github.com/mitchellh/copystructure v1.2.0 // indirect
	github.com/mitchellh/go-homedir v1.1.0 // indirect
	github.com/mitchellh/go-testing-interface v1.14.1 // indirect
	github.com/mitchellh/go-wordwrap v1.0.1 // indirect
	github.com/mitchellh/hashstructure v1.1.0 // indirect
	github.com/mitchellh/mapstructure v1.5.0 // indirect
	github.com/mitchellh/reflectwalk v1.0.2 // indirect
	github.com/moby/sys/mount v0.3.3 // indirect
	github.com/moby/sys/mountinfo v0.6.2 // indirect
	github.com/niemeyer/pretty v0.0.0-20200227124842-a10e7caefd8e // indirect
	github.com/oklog/run v1.1.0 // indirect
	github.com/pierrec/lz4 v2.6.1+incompatible // indirect
	github.com/pmezard/go-difflib v1.0.0 // indirect
	github.com/posener/complete v1.2.3 // indirect
	github.com/power-devops/perfstat v0.0.0-20220216144756-c35f1ee13d7c // indirect
	github.com/ryanuber/go-glob v1.0.0 // indirect
	github.com/sean-/seed v0.0.0-20170313163322-e2103e2c3529 // indirect
	github.com/shirou/gopsutil/v3 v3.22.9 // indirect
	github.com/shopspring/decimal v1.3.1 // indirect
	github.com/spf13/cast v1.5.0 // indirect
	github.com/stretchr/testify v1.8.1 // indirect
	github.com/tklauser/go-sysconf v0.3.10 // indirect
	github.com/tklauser/numcpus v0.5.0 // indirect
	github.com/vmihailenco/msgpack/v4 v4.3.12 // indirect
	github.com/vmihailenco/tagparser v0.1.2 // indirect
	github.com/yusufpapurcu/wmi v1.2.2 // indirect
	github.com/zclconf/go-cty v1.12.0 // indirect
	go.uber.org/atomic v1.10.0 // indirect
	golang.org/x/crypto v0.1.0 // indirect
	golang.org/x/exp v0.0.0-20220921164117-439092de6870 // indirect
	golang.org/x/mod v0.6.0 // indirect
	golang.org/x/net v0.1.0 // indirect
	golang.org/x/sync v0.0.0-20220929204114-8fcdb60fdcc0 // indirect
	golang.org/x/sys v0.1.0 // indirect
	golang.org/x/text v0.4.0 // indirect
	golang.org/x/time v0.1.0 // indirect
	golang.org/x/tools v0.2.0 // indirect
	google.golang.org/appengine v1.6.7 // indirect
	google.golang.org/genproto v0.0.0-20221027153422-115e99e71e1c // indirect
	google.golang.org/protobuf v1.28.1 // indirect
	gopkg.in/check.v1 v1.0.0-20200227125254-8fa46927fb4f // indirect
	gopkg.in/fsnotify.v1 v1.4.7 // indirect
	gopkg.in/square/go-jose.v2 v2.6.0 // indirect
	gopkg.in/tomb.v1 v1.0.0-20141024135613-dd632973f1e7 // indirect
	gopkg.in/yaml.v3 v3.0.1 // indirect
)
